\relax 
\@writefile{toc}{\contentsline {chapter}{\numberline {5}An\IeC {\'a}lisis de los datos}{33}}
\@writefile{lof}{\addvspace {10\p@ }}
\@writefile{lot}{\addvspace {10\p@ }}
\@writefile{toc}{\contentsline {section}{\numberline {5.1}Datos obtenidos}{33}}
\@writefile{lof}{\contentsline {figure}{\numberline {\textbf  {5-1}}{\ignorespaces Taller donde se realizaron las mediciones y sensores para el control de la temperatura del medioambiente.}}{33}}
\newlabel{fig:recinto}{{\textbf  {5-1}}{33}}
\@writefile{lof}{\contentsline {figure}{\numberline {\textbf  {5-2}}{\ignorespaces Datos tomados en tres secciones del antebrazo izquierdo anterior.}}{34}}
\newlabel{fig:abi-4}{{\textbf  {5-2}}{34}}
\@writefile{lof}{\contentsline {figure}{\numberline {\textbf  {5-3}}{\ignorespaces Antebrazo izquierdo con los sensores de temperatura y otros sensores de comparaci\IeC {\'o}n de las medidas.}}{35}}
\newlabel{fig:abi-sensores}{{\textbf  {5-3}}{35}}
\@writefile{lof}{\contentsline {figure}{\numberline {\textbf  {5-4}}{\ignorespaces Archivos que contienen los datos de temperatura de un cuadrante del antebrazo anterior izquierdo .}}{35}}
\newlabel{fig:abia-8p}{{\textbf  {5-4}}{35}}
\@writefile{toc}{\contentsline {section}{\numberline {5.2}Procesamiento de datos}{35}}
\@writefile{lof}{\contentsline {figure}{\numberline {\textbf  {5-5}}{\ignorespaces Carga y visualizaci\IeC {\'o}n de los datos}}{36}}
\newlabel{fig:loaddf}{{\textbf  {5-5}}{36}}
\@writefile{lof}{\contentsline {figure}{\numberline {\textbf  {5-6}}{\ignorespaces Grafica de temperatura con respecto a las muestras tomadas.}}{36}}
\newlabel{fig:graf-real}{{\textbf  {5-6}}{36}}
\@writefile{lof}{\contentsline {figure}{\numberline {\textbf  {5-7}}{\ignorespaces Datos estad\IeC {\'\i }sticos generados del Dataframe mediante el uso del Framework Pandas en Python.}}{37}}
\newlabel{fig:estad-pandas}{{\textbf  {5-7}}{37}}
\@writefile{lof}{\contentsline {figure}{\numberline {\textbf  {5-8}}{\ignorespaces Diferentes gr\IeC {\'a}ficas que se generan con el Dataframe}}{38}}
\@writefile{lof}{\contentsline {subfigure}{\numberline{(a)}{\ignorespaces {Gr\IeC {\'a}fica de distribuci\IeC {\'o}n de los datos temperatura}}}{38}}
\@writefile{lof}{\contentsline {subfigure}{\numberline{(b)}{\ignorespaces {Gr\IeC {\'a}fica de los cuartiles de los datos de temperatura}}}{38}}
\newlabel{fig:discuar}{{\textbf  {5-8}}{38}}
\@writefile{lof}{\contentsline {figure}{\numberline {\textbf  {5-9}}{\ignorespaces Gr\IeC {\'a}ficas de la media aritm\IeC {\'e}tica }}{38}}
\@writefile{lof}{\contentsline {subfigure}{\numberline{(a)}{\ignorespaces {Gr\IeC {\'a}fica de la media aritm\IeC {\'e}tica de cada muestra de temperatura}}}{38}}
\@writefile{lof}{\contentsline {subfigure}{\numberline{(b)}{\ignorespaces {Gr\IeC {\'a}fica de la media aritm\IeC {\'e}tica de cada sensor y posici\IeC {\'o}n real en el plano X}}}{38}}
\newlabel{fig:media2graf}{{\textbf  {5-9}}{38}}
\@writefile{lof}{\contentsline {figure}{\numberline {\textbf  {5-10}}{\ignorespaces Gr\IeC {\'a}ficas en 2D.}}{39}}
\@writefile{lof}{\contentsline {subfigure}{\numberline{(a)}{\ignorespaces {Gr\IeC {\'a}fica de dispersi\IeC {\'o}n y contorno de la temperatura.}}}{39}}
\@writefile{lof}{\contentsline {subfigure}{\numberline{(b)}{\ignorespaces {Mapa de calor en el plano real.}}}{39}}
\@writefile{lof}{\contentsline {subfigure}{\numberline{(c)}{\ignorespaces {Gr\IeC {\'a}fica de dispersi\IeC {\'o}n de la evoluci\IeC {\'o}n del Dataframe.}}}{39}}
\newlabel{fig:graf2D}{{\textbf  {5-10}}{39}}
\@writefile{lof}{\contentsline {figure}{\numberline {\textbf  {5-11}}{\ignorespaces Gr\IeC {\'a}ficas en 3D. }}{40}}
\@writefile{lof}{\contentsline {subfigure}{\numberline{(a)}{\ignorespaces {Gr\IeC {\'a}fica de dispersi\IeC {\'o}n 3D de una muestra del Dataframe.}}}{40}}
\@writefile{lof}{\contentsline {subfigure}{\numberline{(b)}{\ignorespaces {Gr\IeC {\'a}fica de superficie en 3D de una muestra del Dataframe.}}}{40}}
\newlabel{fig:graf3D}{{\textbf  {5-11}}{40}}
\citation{drake2010gray}
\@writefile{toc}{\contentsline {section}{\numberline {5.3}Resultados}{41}}
\@writefile{lof}{\contentsline {figure}{\numberline {\textbf  {5-12}}{\ignorespaces Gr\IeC {\'a}ficas de la media aritm\IeC {\'e}tica de cada sensor de temperatura. }}{41}}
\@writefile{lof}{\contentsline {subfigure}{\numberline{(a)}{\ignorespaces {Gr\IeC {\'a}fica de dispersi\IeC {\'o}n de la media aritm\IeC {\'e}tica de los datos temperatura tomados en el antebrazo izquierdo anterior en el cuadrante 1 de la toma del d\IeC {\'\i }a uno.}}}{41}}
\@writefile{lof}{\contentsline {subfigure}{\numberline{(b)}{\ignorespaces {Gr\IeC {\'a}fica de dispersi\IeC {\'o}n de la media aritm\IeC {\'e}tica de los datos de temperatura tomados en el antebrazo izquierdo anterior en el cuadrante 1 de la toma del d\IeC {\'\i }a dos.}}}{41}}
\@writefile{lof}{\contentsline {subfigure}{\numberline{(c)}{\ignorespaces {Gr\IeC {\'a}fica de dispersi\IeC {\'o}n de la media aritm\IeC {\'e}tica de los datos de temperatura tomados en el antebrazo izquierdo anterior en el cuadrante 1 de la toma del d\IeC {\'\i }a tres.}}}{41}}
\newlabel{fig:mediaDias1}{{\textbf  {5-12}}{41}}
\@writefile{lof}{\contentsline {figure}{\numberline {\textbf  {5-13}}{\ignorespaces Gr\IeC {\'a}ficas de la media aritm\IeC {\'e}tica de cada sensor de temperatura }}{42}}
\@writefile{lof}{\contentsline {subfigure}{\numberline{(a)}{\ignorespaces {Gr\IeC {\'a}fica de dispersi\IeC {\'o}n de la media aritm\IeC {\'e}tica de los datos de temperatura tomados en el antebrazo izquierdo anterior en el cuadrante 2 (ver Fig \ref {fig:antizq}) durante la toma del d\IeC {\'\i }a uno.}}}{42}}
\@writefile{lof}{\contentsline {subfigure}{\numberline{(b)}{\ignorespaces {Gr\IeC {\'a}fica de dispersi\IeC {\'o}n de la media aritm\IeC {\'e}tica de los datos de temperatura tomados en el antebrazo izquierdo anterior en el cuadrante 2 (ver Fig \ref {fig:antizq}) durante la toma del d\IeC {\'\i }a dos.}}}{42}}
\@writefile{lof}{\contentsline {subfigure}{\numberline{(c)}{\ignorespaces {Gr\IeC {\'a}fica de dispersi\IeC {\'o}n de la media aritm\IeC {\'e}tica de los datos de temperatura tomados en el antebrazo izquierdo anterior en el cuadrante 2 (ver Fig \ref {fig:antizq}) durante la toma del d\IeC {\'\i }a tres.}}}{42}}
\newlabel{fig:mediaDias2}{{\textbf  {5-13}}{42}}
\@writefile{lof}{\contentsline {figure}{\numberline {\textbf  {5-14}}{\ignorespaces Datos de temperatura con respecto al tiempo del cuadrante dos del brazo izquierdo.}}{43}}
\newlabel{fig:dataframec2t2}{{\textbf  {5-14}}{43}}
\@writefile{lof}{\contentsline {figure}{\numberline {\textbf  {5-15}}{\ignorespaces Gr\IeC {\'a}ficas de la media aritm\IeC {\'e}tica de los valores de temperatura tomados por cada sensor. }}{44}}
\@writefile{lof}{\contentsline {subfigure}{\numberline{(a)}{\ignorespaces {Gr\IeC {\'a}fica de dispersi\IeC {\'o}n de la media aritm\IeC {\'e}tica de los datos de temperatura tomados en el antebrazo izquierdo anterior en el cuadrante 3 de la toma del d\IeC {\'\i }a uno.}}}{44}}
\@writefile{lof}{\contentsline {subfigure}{\numberline{(b)}{\ignorespaces {Gr\IeC {\'a}fica de dispersi\IeC {\'o}n de la media aritm\IeC {\'e}tica de los datos de temperatura tomados en el antebrazo izquierdo anterior en el cuadrante 3 de la toma del d\IeC {\'\i }a dos.}}}{44}}
\@writefile{lof}{\contentsline {subfigure}{\numberline{(c)}{\ignorespaces {Gr\IeC {\'a}fica de dispersi\IeC {\'o}n de la media aritm\IeC {\'e}tica de los datos de temperatura tomados en el antebrazo izquierdo anterior en el cuadrante 3 de la toma del d\IeC {\'\i }a tres.}}}{44}}
\newlabel{fig:mediaDias3}{{\textbf  {5-15}}{44}}
\@writefile{lof}{\contentsline {figure}{\numberline {\textbf  {5-16}}{\ignorespaces Desviaci\IeC {\'o}n est\IeC {\'a}ndar m\IeC {\'a}xima obtenida para cada sensor durante mediciones en el cuadrante 3 del antebrazo izquierdo.}}{45}}
\newlabel{fig:abia3-std-d1}{{\textbf  {5-16}}{45}}
\@writefile{lof}{\contentsline {figure}{\numberline {\textbf  {5-17}}{\ignorespaces Diagrama de cajas del cuadrante 4 del antebrazo izquierdo anterior de las tomas del d\IeC {\'\i }a 3.}}{45}}
\newlabel{fig:abia4-box-d3}{{\textbf  {5-17}}{45}}
\citation{drake2010gray}
\@writefile{lof}{\contentsline {figure}{\numberline {\textbf  {5-18}}{\ignorespaces Mapa de calor de la media aritm\IeC {\'e}tica de los valores de temperatura tomados en el antebrazo izquierdo anterior del cuadrante 4.}}{46}}
\newlabel{fig:mediaDias4}{{\textbf  {5-18}}{46}}
\@writefile{lof}{\contentsline {figure}{\numberline {\textbf  {5-19}}{\ignorespaces Posici\IeC {\'o}n de la matriz de sensores sobre el brazo anterior izquierdo para la toma de datos de temperatura.}}{46}}
\newlabel{fig:abiac}{{\textbf  {5-19}}{46}}
\@writefile{lof}{\contentsline {figure}{\numberline {\textbf  {5-20}}{\ignorespaces Media aritm\IeC {\'e}tica de los valores de temperatura tomados en el antebrazo izquierdo central toma 4 y 1.}}{47}}
\newlabel{fig:abia-medio}{{\textbf  {5-20}}{47}}
\@setckpt{Kap5/Kap5}{
\setcounter{page}{48}
\setcounter{equation}{0}
\setcounter{enumi}{0}
\setcounter{enumii}{0}
\setcounter{enumiii}{0}
\setcounter{enumiv}{0}
\setcounter{footnote}{0}
\setcounter{mpfootnote}{0}
\setcounter{part}{0}
\setcounter{chapter}{5}
\setcounter{section}{3}
\setcounter{subsection}{0}
\setcounter{subsubsection}{0}
\setcounter{paragraph}{0}
\setcounter{subparagraph}{0}
\setcounter{figure}{20}
\setcounter{table}{0}
\setcounter{parentequation}{0}
\setcounter{float@type}{4}
\setcounter{subfigure}{0}
\setcounter{lofdepth}{1}
\setcounter{subtable}{0}
\setcounter{lotdepth}{1}
\setcounter{LT@tables}{0}
\setcounter{LT@chunks}{0}
\setcounter{r@tfl@t}{0}
}
