\relax 
\citation{kasper2015harrison}
\citation{hall2016guyton}
\@writefile{toc}{\contentsline {chapter}{\numberline {4}Toma de datos y lugares de los datos}{29}}
\@writefile{lof}{\addvspace {10\p@ }}
\@writefile{lot}{\addvspace {10\p@ }}
\@writefile{lof}{\contentsline {figure}{\numberline {\textbf  {4-1}}{\ignorespaces Caja de poliestireno con la matriz de sensores y term\IeC {\'o}metro calibrado.}}{30}}
\newlabel{fig:poliestireno}{{\textbf  {4-1}}{30}}
\@writefile{lof}{\contentsline {figure}{\numberline {\textbf  {4-2}}{\ignorespaces Prueba de la matriz de termocuplas en la caja de poliestireno.}}{30}}
\newlabel{fig:matriz}{{\textbf  {4-2}}{30}}
\@writefile{lof}{\contentsline {figure}{\numberline {\textbf  {4-3}}{\ignorespaces Cuadrantes o zonas del antebrazo izquierdo demarcadas y numeradas en donde se realizo las lecturas de temperaturas.}}{31}}
\@writefile{lof}{\contentsline {subfigure}{\numberline{(a)}{\ignorespaces {Antebrazo izquierdo anterior}}}{31}}
\@writefile{lof}{\contentsline {subfigure}{\numberline{(b)}{\ignorespaces {Antebrazo izquierdo posterior}}}{31}}
\newlabel{fig:antizq}{{\textbf  {4-3}}{31}}
\citation{confortTermico}
\citation{confortTermico2}
\citation{hall2016guyton}
\@writefile{lof}{\contentsline {figure}{\numberline {\textbf  {4-4}}{\ignorespaces Cuadrantes o zonas del antebrazo derecho demarcadas en donde se miden las temperaturas.}}{32}}
\@writefile{lof}{\contentsline {subfigure}{\numberline{(a)}{\ignorespaces {Antebrazo derecho anterior}}}{32}}
\@writefile{lof}{\contentsline {subfigure}{\numberline{(b)}{\ignorespaces {Antebrazo derecho posterior}}}{32}}
\newlabel{fig:antder}{{\textbf  {4-4}}{32}}
\@writefile{lof}{\contentsline {figure}{\numberline {\textbf  {4-5}}{\ignorespaces Term\IeC {\'o}metro y medidor de humedad relativa utilizado para tomar las medidas ambientales.}}{32}}
\newlabel{fig:termos}{{\textbf  {4-5}}{32}}
\@setckpt{Kap4/Kap4}{
\setcounter{page}{33}
\setcounter{equation}{0}
\setcounter{enumi}{0}
\setcounter{enumii}{0}
\setcounter{enumiii}{0}
\setcounter{enumiv}{0}
\setcounter{footnote}{0}
\setcounter{mpfootnote}{0}
\setcounter{part}{0}
\setcounter{chapter}{4}
\setcounter{section}{0}
\setcounter{subsection}{0}
\setcounter{subsubsection}{0}
\setcounter{paragraph}{0}
\setcounter{subparagraph}{0}
\setcounter{figure}{5}
\setcounter{table}{0}
\setcounter{parentequation}{0}
\setcounter{float@type}{4}
\setcounter{subfigure}{0}
\setcounter{lofdepth}{1}
\setcounter{subtable}{0}
\setcounter{lotdepth}{1}
\setcounter{LT@tables}{0}
\setcounter{LT@chunks}{0}
\setcounter{r@tfl@t}{0}
}
