\relax 
\@writefile{toc}{\contentsline {chapter}{\numberline {1}Introducci\'{o}n}{1}}
\@writefile{lof}{\addvspace {10\p@ }}
\@writefile{lot}{\addvspace {10\p@ }}
\citation{wen-yaoshi_schafer_dubin_o'connor_ozturk_min-chihchou_1996}
\citation{bardhan_bhowmik_nath_bhattacharjee_2015}
\citation{matzeu_losacco_parducci_pucci_dini_romanelli_difrancesco_2011}
\citation{milici_amendola_bianco_marrocco_2014}
\citation{stork_tolar_2014}
\citation{tolar_stork_2015}
\citation{tolar_stork_2015-2}
\@setckpt{Kap1/Kap1}{
\setcounter{page}{5}
\setcounter{equation}{0}
\setcounter{enumi}{0}
\setcounter{enumii}{0}
\setcounter{enumiii}{0}
\setcounter{enumiv}{0}
\setcounter{footnote}{0}
\setcounter{mpfootnote}{0}
\setcounter{part}{0}
\setcounter{chapter}{1}
\setcounter{section}{0}
\setcounter{subsection}{0}
\setcounter{subsubsection}{0}
\setcounter{paragraph}{0}
\setcounter{subparagraph}{0}
\setcounter{figure}{0}
\setcounter{table}{0}
\setcounter{parentequation}{0}
\setcounter{float@type}{4}
\setcounter{subfigure}{0}
\setcounter{lofdepth}{1}
\setcounter{subtable}{0}
\setcounter{lotdepth}{1}
\setcounter{LT@tables}{0}
\setcounter{LT@chunks}{0}
\setcounter{r@tfl@t}{0}
}
