\relax 
\citation{unesco}
\@writefile{toc}{\contentsline {chapter}{\numberline {A}Anexo: ASPECTOS BIO\IeC {\'E}TICOS}{49}}
\@writefile{lof}{\addvspace {10\p@ }}
\@writefile{lot}{\addvspace {10\p@ }}
\newlabel{AnexoA}{{A}{49}}
\@writefile{toc}{\contentsline {subsection}{\numberline {A.0.1}Impacto ambiental}{49}}
\@writefile{toc}{\contentsline {subsection}{\numberline {A.0.2}Impacto biosocial}{49}}
\@writefile{toc}{\contentsline {subsection}{\numberline {A.0.3}Impacto en el paciente}{49}}
\@setckpt{Anexos/Anexos}{
\setcounter{page}{51}
\setcounter{equation}{0}
\setcounter{enumi}{0}
\setcounter{enumii}{0}
\setcounter{enumiii}{0}
\setcounter{enumiv}{0}
\setcounter{footnote}{0}
\setcounter{mpfootnote}{0}
\setcounter{part}{0}
\setcounter{chapter}{1}
\setcounter{section}{0}
\setcounter{subsection}{3}
\setcounter{subsubsection}{0}
\setcounter{paragraph}{0}
\setcounter{subparagraph}{0}
\setcounter{figure}{0}
\setcounter{table}{0}
\setcounter{parentequation}{0}
\setcounter{float@type}{4}
\setcounter{subfigure}{0}
\setcounter{lofdepth}{1}
\setcounter{subtable}{0}
\setcounter{lotdepth}{1}
\setcounter{LT@tables}{0}
\setcounter{LT@chunks}{0}
\setcounter{r@tfl@t}{0}
}
