\relax 
\citation{aranda_velasco_aranda_medrano_gutierrez_2006}
\@writefile{toc}{\contentsline {chapter}{\numberline {2}Dise\IeC {\~n}o y construcci\IeC {\'o}n de la red de sensores}{5}}
\@writefile{lof}{\addvspace {10\p@ }}
\@writefile{lot}{\addvspace {10\p@ }}
\citation{cengel_boles_2009}
\citation{concepalloys_2017}
\citation{universidad_de_buenos_aires_1997}
\citation{nationalinstruments_2008_tabla}
\@writefile{lof}{\contentsline {figure}{\numberline {\textbf  {2-1}}{\ignorespaces Tabla de la precisi\IeC {\'o}n del termopar que especifica el m\IeC {\'a}ximo error permitido (en grados Celsius) para varios tipos de termopares en conformidad con IEC584-2 (1982).}}{8}}
\newlabel{fig:tablatermo}{{\textbf  {2-1}}{8}}
\citation{cengel_boles_2014}
\citation{medodologiaDiseno}
\@writefile{toc}{\contentsline {section}{\numberline {2.1}Dise\IeC {\~n}o de la red de sensores}{9}}
\@writefile{toc}{\contentsline {subsection}{\numberline {2.1.1}An\IeC {\'a}lisis del problema}{9}}
\@writefile{toc}{\contentsline {subsection}{\numberline {2.1.2}S\IeC {\'\i }ntesis}{10}}
\@writefile{toc}{\contentsline {subsection}{\numberline {2.1.3}Evaluaci\IeC {\'o}n}{10}}
\@writefile{lof}{\contentsline {figure}{\numberline {\textbf  {2-2}}{\ignorespaces Prueba de medida y confort de la matriz de sensores sobre el la piel del antebrazo izquierdo anterior.}}{10}}
\newlabel{fig:meto-diseno}{{\textbf  {2-2}}{10}}
\@writefile{toc}{\contentsline {subsection}{\numberline {2.1.4}Obtenci\IeC {\'o}n de los resultados}{10}}
\@writefile{toc}{\contentsline {section}{\numberline {2.2}Equipos utilizados}{10}}
\citation{nationalinstruments_2017-9174}
\citation{nationalinstruments_2017-9214}
\@writefile{lof}{\contentsline {figure}{\numberline {\textbf  {2-3}}{\ignorespaces Chasis cDAQ-9174 sistema medidor portable. Recuperado de https://goo.gl/Vz1Rpd}}{11}}
\newlabel{fig:cdaq-9174}{{\textbf  {2-3}}{11}}
\citation{nationalinstruments_2017-9214}
\@writefile{lof}{\contentsline {figure}{\numberline {\textbf  {2-4}}{\ignorespaces NI 9214 M\IeC {\'o}dulo de Entrada de Termopares Isot\IeC {\'e}rmicos de 16 Canales. Recuperado de https://goo.gl/Ehc5Md}}{12}}
\newlabel{fig:ni9214}{{\textbf  {2-4}}{12}}
\@writefile{toc}{\contentsline {section}{\numberline {2.3}Construcci\IeC {\'o}n de las termocuplas}{12}}
\@writefile{lof}{\contentsline {figure}{\numberline {\textbf  {2-5}}{\ignorespaces Dispositivo utilizado para la construcci\IeC {\'o}n de termocuplas por el m\IeC {\'e}todo de arco el\IeC {\'e}ctrico.}}{13}}
\newlabel{fig:otromet}{{\textbf  {2-5}}{13}}
\@writefile{lof}{\contentsline {figure}{\numberline {\textbf  {2-6}}{\ignorespaces Preparaci\IeC {\'o}n de los alambres de Alumel-Chromel para la fusi\IeC {\'o}n y construcci\IeC {\'o}n de la termocupla.}}{14}}
\newlabel{fig:envol-termo}{{\textbf  {2-6}}{14}}
\@writefile{lof}{\contentsline {figure}{\numberline {\textbf  {2-7}}{\ignorespaces Circuito implementado para la fusi\IeC {\'o}n de las termocuplas.}}{15}}
\newlabel{fig:circuito}{{\textbf  {2-7}}{15}}
\citation{cengel_ghajar_2011}
\@writefile{lof}{\contentsline {figure}{\numberline {\textbf  {2-8}}{\ignorespaces Vista desde el microscopio despu\IeC {\'e}s de la fusi\IeC {\'o}n y pulido de la cabeza de la termocupla.}}{16}}
\newlabel{fig:termo-solda}{{\textbf  {2-8}}{16}}
\@writefile{toc}{\contentsline {section}{\numberline {2.4}Calibraci\IeC {\'o}n de las termocuplas}{16}}
\@writefile{lof}{\contentsline {figure}{\numberline {\textbf  {2-9}}{\ignorespaces Instrumento de calibraci\IeC {\'o}n Fluke 9140.}}{17}}
\newlabel{fig:transcat}{{\textbf  {2-9}}{17}}
\@writefile{lof}{\contentsline {figure}{\numberline {\textbf  {2-10}}{\ignorespaces Instrumento de medida Fluke DPM4.}}{18}}
\newlabel{fig:dpm4}{{\textbf  {2-10}}{18}}
\@writefile{lof}{\contentsline {figure}{\numberline {\textbf  {2-11}}{\ignorespaces Equipos utilizados para la calibraci\IeC {\'o}n.}}{18}}
\newlabel{fig:calibra-equipos}{{\textbf  {2-11}}{18}}
\citation{GONZALEZ}
\@writefile{toc}{\contentsline {section}{\numberline {2.5}Armado de la red de sensores}{19}}
\@writefile{lof}{\contentsline {figure}{\numberline {\textbf  {2-12}}{\ignorespaces Disposici\IeC {\'o}n y pegado de las termocuplas a la base de acr\IeC {\'\i }lico.}}{19}}
\newlabel{fig:mount-termo}{{\textbf  {2-12}}{19}}
\@writefile{lof}{\contentsline {figure}{\numberline {\textbf  {2-13}}{\ignorespaces Conexi\IeC {\'o}n realizada en el m\IeC {\'o}dulo NI 9214}}{20}}
\newlabel{fig:conexion}{{\textbf  {2-13}}{20}}
\@writefile{lof}{\contentsline {figure}{\numberline {\textbf  {2-14}}{\ignorespaces Montaje final de la red de sensores y uso del blindaje para reducir el ruido en las medidas.}}{20}}
\newlabel{fig:blindaje}{{\textbf  {2-14}}{20}}
\@setckpt{Kap2/Kap2}{
\setcounter{page}{21}
\setcounter{equation}{0}
\setcounter{enumi}{0}
\setcounter{enumii}{0}
\setcounter{enumiii}{0}
\setcounter{enumiv}{0}
\setcounter{footnote}{0}
\setcounter{mpfootnote}{0}
\setcounter{part}{0}
\setcounter{chapter}{2}
\setcounter{section}{5}
\setcounter{subsection}{0}
\setcounter{subsubsection}{0}
\setcounter{paragraph}{0}
\setcounter{subparagraph}{0}
\setcounter{figure}{14}
\setcounter{table}{0}
\setcounter{parentequation}{0}
\setcounter{float@type}{4}
\setcounter{subfigure}{0}
\setcounter{lofdepth}{1}
\setcounter{subtable}{0}
\setcounter{lotdepth}{1}
\setcounter{LT@tables}{0}
\setcounter{LT@chunks}{0}
\setcounter{r@tfl@t}{0}
}
