\relax 
\citation{nationalinstruments_2017-labview}
\@writefile{toc}{\contentsline {chapter}{\numberline {3}Software para las mediciones y procesamiento de las medidas}{21}}
\@writefile{lof}{\addvspace {10\p@ }}
\@writefile{lot}{\addvspace {10\p@ }}
\@writefile{toc}{\contentsline {section}{\numberline {3.1}Labview}{21}}
\@writefile{lof}{\contentsline {figure}{\numberline {\textbf  {3-1}}{\ignorespaces Interfaz de usuario para la toma de medidas desarrollado en Labview.}}{22}}
\newlabel{fig:interfaz1}{{\textbf  {3-1}}{22}}
\@writefile{lof}{\contentsline {figure}{\numberline {\textbf  {3-2}}{\ignorespaces Pantalla de visualizaci\IeC {\'o}n de los valores de las se\IeC {\~n}ales t\IeC {\'e}rmicas en tiempo real.}}{24}}
\newlabel{fig:visual}{{\textbf  {3-2}}{24}}
\citation{python_all}
\citation{RFC_4180}
\citation{csv}
\@writefile{lof}{\contentsline {figure}{\numberline {\textbf  {3-3}}{\ignorespaces Segunda pesta\IeC {\~n}a de la interfaz.}}{25}}
\newlabel{fig:interfaz2}{{\textbf  {3-3}}{25}}
\@writefile{toc}{\contentsline {section}{\numberline {3.2}Python}{25}}
\citation{RFC_4180}
\@writefile{lof}{\contentsline {figure}{\numberline {\textbf  {3-4}}{\ignorespaces Organizaci\IeC {\'o}n de los datos de temperatura contenidos en los archivos y creaci\IeC {\'o}n del archivo con extensi\IeC {\'o}n \textbf  {csv} que se utiliza para el procesamiento de los datos.}}{26}}
\newlabel{fig:archivocsv}{{\textbf  {3-4}}{26}}
\citation{Shen2014jupyter}
\citation{pandas}
\citation{Scypi}
\citation{numpy}
\@writefile{lof}{\contentsline {figure}{\numberline {\textbf  {3-5}}{\ignorespaces Interfaz de Jupyter Notebook, visualizaci\IeC {\'o}n del c\IeC {\'o}digo, gr\IeC {\'a}ficas y texto desarrollado.}}{27}}
\newlabel{fig:jupyterdemo}{{\textbf  {3-5}}{27}}
\citation{plotly}
\citation{matplotlib}
\@setckpt{Kap3/Kap3}{
\setcounter{page}{29}
\setcounter{equation}{0}
\setcounter{enumi}{0}
\setcounter{enumii}{0}
\setcounter{enumiii}{0}
\setcounter{enumiv}{0}
\setcounter{footnote}{0}
\setcounter{mpfootnote}{0}
\setcounter{part}{0}
\setcounter{chapter}{3}
\setcounter{section}{2}
\setcounter{subsection}{0}
\setcounter{subsubsection}{0}
\setcounter{paragraph}{0}
\setcounter{subparagraph}{0}
\setcounter{figure}{5}
\setcounter{table}{0}
\setcounter{parentequation}{0}
\setcounter{float@type}{4}
\setcounter{subfigure}{0}
\setcounter{lofdepth}{1}
\setcounter{subtable}{0}
\setcounter{lotdepth}{1}
\setcounter{LT@tables}{0}
\setcounter{LT@chunks}{0}
\setcounter{r@tfl@t}{0}
}
