%!PS-Adobe-3.0 EPSF-3.0
%%Creator: cairo 1.13.1 (http://cairographics.org)
%%CreationDate: Fri May  4 01:48:11 2018
%%Pages: 1
%%DocumentData: Clean7Bit
%%LanguageLevel: 2
%%BoundingBox: 0 8 227 265
%%EndComments
%%BeginProlog
save
50 dict begin
/q { gsave } bind def
/Q { grestore } bind def
/cm { 6 array astore concat } bind def
/w { setlinewidth } bind def
/J { setlinecap } bind def
/j { setlinejoin } bind def
/M { setmiterlimit } bind def
/d { setdash } bind def
/m { moveto } bind def
/l { lineto } bind def
/c { curveto } bind def
/h { closepath } bind def
/re { exch dup neg 3 1 roll 5 3 roll moveto 0 rlineto
      0 exch rlineto 0 rlineto closepath } bind def
/S { stroke } bind def
/f { fill } bind def
/f* { eofill } bind def
/n { newpath } bind def
/W { clip } bind def
/W* { eoclip } bind def
/BT { } bind def
/ET { } bind def
/pdfmark where { pop globaldict /?pdfmark /exec load put }
    { globaldict begin /?pdfmark /pop load def /pdfmark
    /cleartomark load def end } ifelse
/BDC { mark 3 1 roll /BDC pdfmark } bind def
/EMC { mark /EMC pdfmark } bind def
/cairo_store_point { /cairo_point_y exch def /cairo_point_x exch def } def
/Tj { show currentpoint cairo_store_point } bind def
/TJ {
  {
    dup
    type /stringtype eq
    { show } { -0.001 mul 0 cairo_font_matrix dtransform rmoveto } ifelse
  } forall
  currentpoint cairo_store_point
} bind def
/cairo_selectfont { cairo_font_matrix aload pop pop pop 0 0 6 array astore
    cairo_font exch selectfont cairo_point_x cairo_point_y moveto } bind def
/Tf { pop /cairo_font exch def /cairo_font_matrix where
      { pop cairo_selectfont } if } bind def
/Td { matrix translate cairo_font_matrix matrix concatmatrix dup
      /cairo_font_matrix exch def dup 4 get exch 5 get cairo_store_point
      /cairo_font where { pop cairo_selectfont } if } bind def
/Tm { 2 copy 8 2 roll 6 array astore /cairo_font_matrix exch def
      cairo_store_point /cairo_font where { pop cairo_selectfont } if } bind def
/g { setgray } bind def
/rg { setrgbcolor } bind def
/d1 { setcachedevice } bind def
%%EndProlog
%%BeginSetup
%%EndSetup
%%Page: 1 1
%%BeginPageSetup
%%PageBoundingBox: 0 8 227 265
%%EndPageSetup
q 0 8 227 257 rectclip q
0 0.564706 0.207843 rg
28 40.595 m 16.242 40.595 l 14.641 40.595 13.316 40.704 12.27 40.923 c 
11.227 41.146 10.195 41.544 9.176 42.13 c 8.16 42.716 7.336 43.481 6.699
 44.431 c 6.066 45.38 5.68 46.45 5.547 47.638 c 5.406 48.86 5.57 50.259 
6.031 51.829 c 6.336 52.778 6.594 53.481 6.809 53.939 c 7.02 54.396 7.609
 55.521 8.574 57.31 c 8.711 57.528 8.801 57.735 8.848 57.927 c 8.895 58.118
 8.91 58.267 8.898 58.38 c 8.859 58.724 8.555 58.981 7.988 59.146 c 7.738
 59.228 l 7.406 59.337 7.227 59.474 7.211 59.638 c 7.199 60.353 l 14.484
 60.353 l 14.492 59.665 l 14.516 59.481 14.367 59.345 14.059 59.255 c 13.762
 59.146 l 13.172 58.907 12.641 58.524 12.172 57.993 c 11.629 57.337 11.012
 56.13 10.316 54.376 c 9.852 53.208 9.551 52.224 9.414 51.419 c 9.277 50.614
 9.262 49.739 9.367 48.79 c 9.812 44.88 12.531 42.923 17.527 42.923 c 22.578
 42.923 l 22.559 57.966 l 22.523 58.267 l 22.43 58.47 22.359 58.614 22.301
 58.708 c 22.16 58.942 21.984 59.091 21.77 59.146 c 21.555 59.228 l 21.246
 59.337 21.082 59.474 21.062 59.638 c 20.98 60.353 l 27.957 60.353 l 27.969
 59.665 l 27.926 59.63 27.906 59.603 27.906 59.583 c 27.848 59.493 27.789
 59.427 27.723 59.392 c 27.434 59.228 l 27.133 59.146 l 26.582 58.942 26.34
 58.56 26.402 57.993 c 26.461 42.95 l 26.426 42.622 l 26.473 42.239 26.723
 41.958 27.176 41.774 c 27.457 41.72 l 27.551 41.7 27.66 41.646 27.785 41.556
 c 28.023 41.282 l h
29.34 40.595 m 29.367 41.255 l 29.344 41.454 29.512 41.599 29.867 41.692
 c 30.098 41.774 l 30.672 41.974 30.926 42.368 30.859 42.95 c 30.84 57.966
 l 30.816 58.185 l 30.762 58.661 30.508 58.981 30.055 59.146 c 29.805 59.228
 l 29.473 59.317 29.297 59.466 29.273 59.665 c 29.266 60.353 l 34.969 60.353
 l 47.23 51.2 l 47.203 57.966 l 47.207 58.22 l 47.156 58.685 46.891 59.001
 46.414 59.165 c 46.164 59.251 l 45.879 59.341 45.723 59.478 45.703 59.665
 c 45.695 60.353 l 51.914 60.353 l 51.891 59.665 l 51.715 59.392 l 51.391
 59.228 l 51.188 59.173 l 50.637 59.009 50.359 58.614 50.359 57.993 c 50.418
 42.95 l 50.43 42.841 l 50.492 42.294 50.738 41.946 51.164 41.802 c 51.449
 41.72 l 51.758 41.626 51.922 41.481 51.945 41.282 c 52.023 40.595 l 45.629
 40.595 l 45.625 41.255 l 45.602 41.454 45.758 41.599 46.09 41.692 c 46.32
 41.774 l 46.918 41.974 47.219 42.368 47.219 42.95 c 47.203 47.036 l 34.07
 56.763 l 34.117 42.95 l 34.125 42.622 l 34.168 42.259 34.422 41.985 34.891
 41.802 c 35.133 41.72 l 35.414 41.626 35.562 41.489 35.582 41.31 c 35.664
 40.595 l h
53.297 40.595 m 53.32 41.282 l 53.301 41.462 53.469 41.599 53.824 41.692
 c 54.055 41.774 l 54.562 41.939 54.828 42.329 54.852 42.95 c 54.883 43.884
 l 54.797 57.966 l 54.793 58.298 l 54.742 58.771 54.504 59.056 54.078 59.146
 c 53.762 59.228 l 53.43 59.317 53.254 59.466 53.23 59.665 c 53.223 60.353
 l 60.164 60.353 l 60.172 59.665 l 60.066 59.392 l 59.707 59.228 l 59.578
 59.146 l 59.219 59.009 l 59.043 58.935 58.902 58.786 58.805 58.556 c 58.703
 58.329 58.652 58.13 58.648 57.966 c 58.699 42.95 l 58.727 42.731 l 58.742
 42.567 58.789 42.407 58.863 42.255 c 58.941 42.099 59.062 41.993 59.227
 41.939 c 59.52 41.802 l 59.734 41.72 l 60.047 41.591 60.211 41.454 60.227
 41.31 c 60.238 40.595 l h
69.727 40.595 m 61.98 57.966 l 61.863 58.204 61.75 58.407 61.637 58.571
 c 61.414 58.915 61.234 59.11 61.094 59.146 c 60.844 59.228 l 60.531 59.337
 60.367 59.474 60.348 59.638 c 60.371 60.353 l 67.004 60.353 l 67.012 59.665
 l 67.035 59.481 66.879 59.337 66.547 59.228 c 66.277 59.173 l 66.125 59.099
 66.062 58.962 66.086 58.763 c 66.105 58.564 66.191 58.31 66.344 58.001 
c 71.922 45.106 l 77.379 57.993 l 77.52 58.341 77.582 58.606 77.562 58.79
 c 77.539 58.989 77.434 59.118 77.242 59.173 c 77.031 59.228 l 76.723 59.337
 76.555 59.481 76.535 59.665 c 76.457 60.353 l 82.473 60.353 l 82.48 59.665
 l 82.504 59.466 82.348 59.317 82.016 59.228 c 81.781 59.173 l 81.625 59.138
 81.449 58.993 81.262 58.747 c 81.07 58.501 80.914 58.239 80.781 57.966 
c 73.129 40.595 l h
82.613 40.595 m 82.645 41.255 l 82.883 41.528 l 83.207 41.692 l 83.469 
41.747 l 83.91 41.856 84.141 42.259 84.152 42.95 c 84.113 57.993 l 84.113
 58.298 l 83.969 58.735 l 83.668 58.954 l 83.406 59.118 l 83.121 59.228 
l 82.926 59.317 82.766 59.427 82.637 59.556 c 82.613 59.575 82.586 59.61
 82.555 59.665 c 82.547 60.353 l 101.547 60.353 l 101.551 56.681 l 100.66
 56.681 l 100.336 56.681 100.105 56.806 99.961 57.06 c 99.82 57.407 l 99.613
 57.802 99.391 58.044 99.152 58.138 c 98.914 58.224 98.336 58.267 97.418
 58.267 c 87.938 58.267 l 87.984 52.708 l 95.883 52.708 l 96.527 52.79 l
 96.66 52.849 96.773 52.911 96.867 52.989 c 96.961 53.064 97.066 53.192 
97.184 53.368 c 97.301 53.548 97.414 53.661 97.523 53.72 c 97.629 53.774
 97.789 53.802 97.996 53.802 c 98.715 53.802 l 98.723 49.501 l 98.07 49.501
 l 97.84 49.501 97.672 49.532 97.562 49.591 c 97.449 49.657 97.324 49.802
 97.184 50.036 c 96.914 50.411 96.262 50.595 95.23 50.595 c 88.008 50.595
 l 88.078 42.731 l 97.91 42.731 l 98.758 42.731 99.426 42.794 99.918 42.907
 c 100.406 43.024 100.77 43.255 101.008 43.595 c 101.242 43.942 l 101.359
 44.138 101.645 44.239 102.102 44.239 c 102.688 44.239 l 102.688 40.595 
l h
104.234 40.595 m 104.262 41.282 l 104.238 41.462 104.418 41.599 104.797
 41.692 c 104.996 41.774 l 105.516 41.974 105.781 42.368 105.785 42.95 c
 105.734 57.993 l 105.742 58.239 l 105.688 58.696 105.449 59.001 105.02 
59.146 c 104.734 59.228 l 104.406 59.392 l 104.332 59.446 104.273 59.497
 104.234 59.544 c 104.195 59.587 104.172 59.63 104.168 59.665 c 104.16 60.353
 l 115.398 60.353 l 117.875 60.353 119.812 59.931 121.215 59.091 c 122.617
 58.251 123.406 57.024 123.59 55.419 c 123.703 54.431 123.531 53.564 123.078
 52.817 c 122.625 52.067 122.035 51.446 121.312 50.954 c 120.883 50.696 
120.477 50.493 120.094 50.337 c 119.711 50.181 119.141 50.005 118.383 49.802
 c 123.523 42.95 l 123.98 42.368 124.473 41.974 125 41.774 c 125.25 41.692
 l 125.535 41.599 125.688 41.462 125.707 41.282 c 125.719 40.595 l 120.418
 40.595 l 114.52 49.282 l 109.598 49.282 l 109.641 42.95 l 109.656 42.814
 l 109.711 42.302 109.98 41.958 110.461 41.774 c 110.707 41.72 l 111.02 
41.591 111.184 41.454 111.199 41.31 c 111.211 40.595 l h
109.609 58.267 m 109.629 51.419 l 114.793 51.419 l 115.824 51.419 116.59
 51.481 117.09 51.61 c 117.598 51.739 118.09 51.993 118.574 52.376 c 119.348
 53.036 119.668 53.95 119.535 55.118 c 119.406 56.251 118.977 57.06 118.246
 57.544 c 117.516 58.024 116.363 58.267 114.805 58.267 c h
124.742 45.255 m 128.777 47.255 l 129.141 46.888 129.328 46.649 129.34 
46.54 c 129.324 46.485 129.305 46.435 129.289 46.392 c 129.27 46.345 129.23
 46.286 129.172 46.212 c 128.906 45.802 l 128.844 45.747 128.824 45.63 128.844
 45.446 c 128.938 44.642 129.57 43.939 130.746 43.337 c 131.918 42.731 133.254
 42.431 134.754 42.431 c 136.504 42.431 137.926 42.798 139.02 43.528 c 140.109
 44.259 140.598 45.181 140.469 46.294 c 140.375 47.118 139.973 47.747 139.254
 48.185 c 138.934 48.388 138.441 48.606 137.797 48.845 c 137.488 48.935 
137.176 49.024 136.867 49.118 c 136.391 49.263 135.656 49.454 134.66 49.692
 c 131.133 50.622 l 128.148 51.536 126.547 52.97 126.328 54.927 c 126.137
 56.587 126.809 57.958 128.336 59.036 c 129.863 60.114 131.934 60.653 134.547
 60.653 c 136.609 60.653 138.48 60.306 140.164 59.61 c 141.25 59.118 142.223
 58.314 143.082 57.2 c 140.336 55.064 l 140.039 55.263 139.836 55.403 139.738
 55.489 c 139.637 55.571 139.582 55.638 139.574 55.692 c 139.75 55.993 l
 139.684 56.571 l 139.617 57.153 139.09 57.646 138.105 58.048 c 137.121 
58.45 135.941 58.653 134.566 58.653 c 133.008 58.653 131.801 58.388 130.945
 57.856 c 130.086 57.329 129.711 56.606 129.816 55.692 c 129.895 54.981 
130.328 54.403 131.117 53.966 c 131.559 53.692 132.09 53.458 132.695 53.267
 c 133.309 53.075 134.297 52.825 135.668 52.513 c 137.039 52.204 137.844
 52.017 138.082 51.954 c 138.316 51.888 138.762 51.747 139.406 51.528 c 
142.402 50.524 144.012 48.997 144.246 46.954 c 144.359 45.946 144.129 44.958
 143.543 43.978 c 142.969 43.001 142.145 42.22 141.09 41.638 c 139.469 40.724
 137.285 40.267 134.555 40.267 c 132.184 40.267 130.168 40.689 128.512 41.528
 c 127.734 41.911 127.074 42.368 126.547 42.896 c 126.016 43.427 125.41 
44.212 124.742 45.255 c h
145.789 40.595 m 145.816 41.282 l 145.793 41.462 145.965 41.599 146.32 
41.692 c 146.551 41.774 l 147.059 41.939 147.324 42.329 147.344 42.95 c 
147.375 43.884 l 147.293 57.966 l 147.289 58.298 l 147.234 58.771 146.996
 59.056 146.574 59.146 c 146.258 59.228 l 145.926 59.317 145.75 59.466 145.727
 59.665 c 145.715 60.353 l 152.66 60.353 l 152.668 59.665 l 152.562 59.392
 l 152.203 59.228 l 152.074 59.146 l 151.711 59.009 l 151.535 58.935 151.398
 58.786 151.301 58.556 c 151.199 58.329 151.148 58.13 151.141 57.966 c 151.195
 42.95 l 151.219 42.731 l 151.238 42.567 151.285 42.407 151.359 42.255 c
 151.434 42.099 151.555 41.993 151.723 41.939 c 152.012 41.802 l 152.227
 41.72 l 152.539 41.591 152.703 41.454 152.723 41.31 c 152.734 40.595 l 
h
154.074 40.595 m 154.098 41.282 l 154.121 41.481 154.277 41.618 154.57 
41.692 c 154.801 41.774 l 155.059 41.864 155.258 42.017 155.395 42.228 c
 155.531 42.435 155.609 42.677 155.621 42.95 c 155.574 57.993 l 155.574 
58.298 l 155.52 58.771 155.27 59.056 154.824 59.146 c 154.504 59.228 l 154.195
 59.317 154.031 59.466 154.008 59.665 c 154 60.353 l 160.426 60.353 l 165.125
 60.353 168.926 59.466 171.832 57.692 c 174.734 55.923 176.363 53.501 176.711
 50.431 c 176.879 48.935 176.66 47.521 176.055 46.185 c 175.453 44.853 174.523
 43.739 173.273 42.841 c 171.152 41.345 168.168 40.595 164.316 40.595 c 
h
159.414 58.075 m 159.465 42.759 l 163.555 42.759 l 165.207 42.759 166.559
 42.896 167.617 43.173 c 168.672 43.446 169.578 43.892 170.336 44.513 c 
171.191 45.228 171.836 46.11 172.266 47.173 c 172.695 48.231 172.848 49.325
 172.719 50.458 c 172.453 52.817 171.238 54.673 169.078 56.036 c 166.922
 57.396 164.121 58.075 160.684 58.075 c h
174.801 40.595 m 174.789 41.282 l 174.77 41.462 174.914 41.61 175.223 41.72
 c 175.453 41.802 l 176.074 42.001 176.523 42.384 176.801 42.95 c 185.176
 60.353 l 189.129 60.353 l 198.285 42.95 l 198.43 42.677 198.594 42.423 
198.781 42.185 c 198.969 41.946 199.109 41.821 199.203 41.802 c 199.453 
41.72 l 199.742 41.61 199.895 41.474 199.914 41.31 c 199.992 40.595 l 193.051
 40.595 l 193.047 41.255 l 193.02 41.474 193.176 41.618 193.512 41.692 c
 193.742 41.774 l 194.008 41.864 194.121 42.075 194.082 42.403 c 193.93 
42.958 l 191.137 48.403 l 182.816 48.403 l 180.156 42.958 l 180.07 42.755
 180.039 42.571 180.059 42.407 c 180.09 42.153 180.309 41.942 180.715 41.778
 c 180.965 41.692 l 181.25 41.618 181.402 41.489 181.422 41.31 c 181.504
 40.595 l h
186.828 57.282 m 183.676 50.485 l 190.223 50.481 l h
199.961 40.595 m 199.984 41.282 l 200.008 41.481 200.164 41.618 200.453
 41.692 c 200.684 41.774 l 200.945 41.864 201.145 42.017 201.281 42.228 
c 201.418 42.435 201.492 42.677 201.508 42.95 c 201.457 57.993 l 201.457
 58.298 l 201.406 58.771 201.156 59.056 200.711 59.146 c 200.391 59.228 
l 200.082 59.317 199.918 59.466 199.895 59.665 c 199.887 60.353 l 206.312
 60.353 l 211.012 60.353 214.812 59.466 217.715 57.692 c 220.621 55.923 
222.246 53.501 222.594 50.431 c 222.766 48.935 222.547 47.521 221.941 46.185
 c 221.336 44.853 220.41 43.739 219.16 42.841 c 217.039 41.345 214.051 40.595
 210.203 40.595 c h
205.301 58.075 m 205.352 42.759 l 209.441 42.759 l 211.09 42.759 212.445
 42.896 213.504 43.173 c 214.559 43.446 215.465 43.892 216.219 44.513 c 
217.078 45.228 217.723 46.11 218.152 47.173 c 218.582 48.231 218.734 49.325
 218.605 50.458 c 218.34 52.817 217.125 54.673 214.965 56.036 c 212.805 
57.396 210.008 58.075 206.57 58.075 c h
205.301 58.075 m f*
0.703 9.321 m 0.73 10.044 l 0.754 10.255 0.922 10.399 1.234 10.474 c 1.484
 10.564 l 1.762 10.657 1.977 10.817 2.125 11.036 c 2.27 11.259 2.352 11.513
 2.367 11.802 c 2.273 27.63 l 2.273 27.946 l 2.215 28.446 1.945 28.743 1.465
 28.841 c 1.121 28.927 l 0.785 29.024 0.609 29.177 0.582 29.388 c 0.57 30.11
 l 7.5 30.11 l 12.562 30.11 16.664 29.177 19.801 27.314 c 22.938 25.446 
24.695 22.899 25.078 19.673 c 25.266 18.095 25.035 16.606 24.387 15.204 
c 23.738 13.802 22.738 12.63 21.395 11.685 c 19.109 10.11 15.895 9.321 11.746
 9.321 c h
6.414 27.716 m 6.508 11.599 l 10.918 11.599 l 12.699 11.599 14.156 11.743
 15.297 12.032 c 16.434 12.321 17.41 12.79 18.223 13.446 c 19.145 14.196
 19.836 15.126 20.297 16.243 c 20.758 17.356 20.918 18.509 20.777 19.7 c
 20.484 22.181 19.168 24.138 16.84 25.567 c 14.508 27.001 11.488 27.716 
7.785 27.716 c h
27.23 9.321 m 27.262 10.013 l 27.52 10.302 l 27.867 10.474 l 28.152 10.532
 l 28.625 10.649 28.871 11.071 28.883 11.802 c 28.801 27.63 l 28.801 27.946
 l 28.641 28.407 l 28.32 28.638 l 28.039 28.81 l 27.73 28.927 l 27.52 29.024
 27.344 29.138 27.207 29.274 c 27.18 29.29 27.148 29.329 27.117 29.388 c
 27.105 30.11 l 47.59 30.11 l 47.605 26.247 l 46.641 26.247 l 46.293 26.247
 46.043 26.38 45.891 26.646 c 45.734 27.009 l 45.512 27.427 45.273 27.681
 45.012 27.778 c 44.758 27.868 44.133 27.919 43.145 27.919 c 32.926 27.919
 l 32.988 22.064 l 41.504 22.064 l 42.199 22.153 l 42.34 22.216 42.461 22.282
 42.562 22.364 c 42.664 22.439 42.777 22.575 42.902 22.763 c 43.031 22.95
 43.152 23.067 43.27 23.13 c 43.383 23.189 43.555 23.22 43.777 23.22 c 44.555
 23.22 l 44.574 18.692 l 43.867 18.692 l 43.621 18.692 43.438 18.728 43.32
 18.786 c 43.199 18.856 43.066 19.009 42.914 19.255 c 42.617 19.649 41.918
 19.845 40.805 19.845 c 33.016 19.845 l 33.117 11.571 l 43.715 11.571 l 
44.629 11.571 45.348 11.634 45.879 11.755 c 46.406 11.88 46.797 12.118 47.051
 12.478 c 47.305 12.845 l 47.426 13.052 47.734 13.157 48.23 13.157 c 48.859
 13.157 l 48.871 9.321 l h
50.539 9.321 m 50.566 10.013 l 50.543 10.224 50.707 10.38 51.062 10.474
 c 51.387 10.564 l 51.934 10.716 52.227 11.13 52.27 11.802 c 52.148 27.599
 l 52.145 27.946 l 52.082 28.485 51.836 28.782 51.41 28.841 c 50.953 28.927
 l 50.652 28.966 50.484 29.118 50.453 29.388 c 50.441 30.11 l 57.891 30.11
 l 57.902 29.388 l 57.875 29.196 57.707 29.04 57.402 28.927 c 57.109 28.868
 l 56.59 28.677 56.305 28.263 56.258 27.63 c 56.383 11.599 l 64.68 11.599
 l 65.348 11.599 65.863 11.638 66.223 11.716 c 66.898 11.849 67.418 12.243
 67.785 12.896 c 67.996 13.224 68.297 13.388 68.691 13.388 c 69.469 13.388
 l 69.508 9.321 l h
105.211 12.263 m 106.09 11.724 106.898 11.454 107.641 11.454 c 108.109 
11.454 108.508 11.649 108.832 12.032 c 109.07 12.321 109.445 12.466 109.965
 12.466 c 110.336 12.466 l 110.336 9.032 l 109.926 8.958 109.508 8.896 109.078
 8.845 c 108.652 8.798 108.266 8.774 107.922 8.774 c 107.082 8.774 106.344
 8.86 105.703 9.032 c 105.066 9.208 104.57 9.38 104.215 9.552 c 103.863 
9.728 103.324 10.052 102.598 10.532 c 100.977 9.86 99.688 9.419 98.738 9.208
 c 97.785 8.997 96.559 8.892 95.051 8.892 c 91.297 8.892 88.211 9.739 85.801
 11.442 c 83.387 13.142 82.004 15.474 81.656 18.431 c 81.246 21.892 82.289
 24.755 84.785 27.024 c 87.281 29.29 90.645 30.427 94.867 30.427 c 98.547
 30.427 101.598 29.548 104.016 27.786 c 106.438 26.028 107.82 23.689 108.164
 20.767 c 108.234 20.192 l 108.254 20.036 108.27 19.884 108.289 19.731 c
 108.266 19.501 108.262 19.337 108.273 19.239 c 108.23 17.72 108.027 16.536
 107.656 15.681 c 107.289 14.825 106.473 13.685 105.211 12.263 c h
100.051 15.146 m 100.527 14.896 100.848 14.72 101.023 14.614 c 101.195 
14.505 101.59 14.263 102.203 13.876 c 102.848 14.685 103.34 15.743 103.68
 17.048 c 104.02 18.356 104.117 19.606 103.977 20.798 c 103.711 23.024 102.758
 24.806 101.121 26.13 c 99.48 27.458 97.402 28.118 94.883 28.118 c 91.918
 28.118 89.602 27.224 87.938 25.439 c 86.273 23.649 85.609 21.333 85.945
 18.489 c 86.219 16.204 87.148 14.407 88.734 13.099 c 90.32 11.794 92.387
 11.138 94.934 11.138 c 95.895 11.138 96.68 11.204 97.281 11.341 c 97.883
 11.474 98.734 11.782 99.836 12.263 c 98.008 13.532 96.438 14.165 95.129
 14.165 c 94.238 14.165 93.195 13.927 91.992 13.446 c 90.719 14.802 l 91.547
 15.317 92.367 15.7 93.176 15.939 c 93.988 16.181 94.84 16.298 95.727 16.298
 c 97.211 16.298 98.652 15.915 100.051 15.146 c h
135.977 9.321 m 123.309 9.321 l 121.578 9.321 120.148 9.439 119.023 9.669
 c 117.898 9.899 116.785 10.321 115.688 10.939 c 114.59 11.552 113.695 12.36
 113.008 13.36 c 112.324 14.356 111.906 15.481 111.758 16.731 c 111.605 
18.021 111.773 19.489 112.27 21.142 c 112.598 22.142 112.875 22.884 113.102
 23.364 c 113.328 23.845 113.961 25.024 114.996 26.907 c 115.141 27.138 
115.238 27.356 115.289 27.556 c 115.34 27.759 115.355 27.919 115.344 28.032
 c 115.301 28.399 114.973 28.669 114.359 28.841 c 114.09 28.927 l 113.73
 29.04 113.539 29.185 113.52 29.36 c 113.504 30.11 l 121.359 30.11 l 121.371
 29.388 l 121.395 29.196 121.238 29.052 120.902 28.954 c 120.582 28.841 
l 119.945 28.591 119.375 28.189 118.875 27.63 c 118.289 26.939 117.625 25.669
 116.879 23.825 c 116.383 22.595 116.062 21.556 115.918 20.712 c 115.77 
19.864 115.754 18.942 115.875 17.942 c 116.363 13.829 119.297 11.774 124.684
 11.774 c 130.129 11.774 l 130.066 27.599 l 130.031 27.919 l 129.93 28.13
 129.852 28.282 129.789 28.38 c 129.637 28.63 129.445 28.782 129.215 28.841
 c 128.984 28.927 l 128.648 29.04 128.473 29.185 128.449 29.36 c 128.363
 30.11 l 135.883 30.11 l 135.895 29.388 l 135.852 29.349 135.828 29.321 
135.832 29.302 c 135.77 29.204 135.703 29.138 135.633 29.099 c 135.32 28.927
 l 134.996 28.841 l 134.402 28.63 134.145 28.224 134.215 27.63 c 134.312
 11.802 l 134.281 11.454 l 134.328 11.052 134.598 10.755 135.09 10.564 c
 135.395 10.505 l 135.496 10.485 135.613 10.427 135.746 10.333 c 136.004
 10.044 l h
137.422 9.321 m 137.453 10.013 l 137.426 10.224 137.605 10.38 137.992 10.474
 c 138.238 10.564 l 138.855 10.774 139.129 11.189 139.055 11.802 c 138.996
 27.599 l 138.969 27.829 l 138.91 28.329 138.637 28.669 138.145 28.841 c
 137.875 28.927 l 137.52 29.024 137.328 29.177 137.301 29.388 c 137.293 
30.11 l 143.441 30.11 l 156.684 20.481 l 156.633 27.599 l 156.641 27.864
 l 156.582 28.356 156.293 28.685 155.781 28.86 c 155.508 28.95 l 155.203
 29.048 155.035 29.192 155.012 29.388 c 155 30.11 l 161.707 30.11 l 161.684
 29.388 l 161.496 29.099 l 161.145 28.927 l 160.93 28.868 l 160.332 28.696
 160.035 28.282 160.039 27.63 c 160.137 11.802 l 160.152 11.685 l 160.219
 11.11 160.484 10.743 160.949 10.591 c 161.254 10.505 l 161.586 10.407 161.766
 10.255 161.793 10.044 c 161.879 9.321 l 154.984 9.321 l 154.977 10.013 
l 154.953 10.224 155.121 10.38 155.48 10.474 c 155.727 10.564 l 156.371 
10.774 156.691 11.189 156.691 11.802 c 156.664 16.099 l 142.48 26.333 l 
142.57 11.802 l 142.578 11.454 l 142.625 11.071 142.898 10.782 143.406 10.591
 c 143.668 10.505 l 143.969 10.407 144.129 10.263 144.152 10.071 c 144.242
 9.321 l h
163.246 9.321 m 163.273 10.044 l 163.297 10.255 163.465 10.399 163.777 
10.474 c 164.027 10.564 l 164.305 10.657 164.523 10.817 164.668 11.036 c
 164.816 11.259 164.895 11.513 164.91 11.802 c 164.816 27.63 l 164.816 27.946
 l 164.758 28.446 164.488 28.743 164.008 28.841 c 163.664 28.927 l 163.332
 29.024 163.152 29.177 163.129 29.388 c 163.117 30.11 l 170.043 30.11 l 
175.109 30.11 179.207 29.177 182.344 27.314 c 185.48 25.446 187.238 22.899
 187.621 19.673 c 187.809 18.095 187.578 16.606 186.93 15.204 c 186.281 
13.802 185.285 12.63 183.938 11.685 c 181.656 10.11 178.438 9.321 174.289
 9.321 c h
168.957 27.716 m 169.055 11.599 l 173.465 11.599 l 175.242 11.599 176.699
 11.743 177.84 12.032 c 178.98 12.321 179.953 12.79 180.766 13.446 c 181.691
 14.196 182.383 15.126 182.844 16.243 c 183.305 17.356 183.461 18.509 183.32
 19.7 c 183.027 22.181 181.715 24.138 179.383 25.567 c 177.051 27.001 174.035
 27.716 170.328 27.716 c h
189.777 9.321 m 189.801 10.044 l 189.781 10.235 189.961 10.38 190.344 10.474
 c 190.594 10.564 l 191.141 10.735 191.426 11.149 191.445 11.802 c 191.477
 12.782 l 191.352 27.599 l 191.348 27.946 l 191.289 28.446 191.031 28.743
 190.574 28.841 c 190.23 28.927 l 189.871 29.024 189.68 29.177 189.656 29.388
 c 189.645 30.11 l 197.129 30.11 l 197.141 29.388 l 197.027 29.099 l 196.641
 28.927 l 196.5 28.841 l 196.113 28.696 l 195.922 28.618 195.773 28.462 
195.668 28.22 c 195.562 27.981 195.504 27.774 195.5 27.599 c 195.598 11.802
 l 195.625 11.571 l 195.645 11.399 195.695 11.231 195.777 11.067 c 195.855
 10.903 195.988 10.794 196.168 10.735 c 196.48 10.591 l 196.715 10.505 l
 197.051 10.368 197.227 10.224 197.246 10.071 c 197.262 9.321 l h
199.27 19.239 m 198.887 22.489 199.996 25.165 202.598 27.271 c 205.199 
29.372 208.602 30.427 212.801 30.427 c 216.555 30.427 219.668 29.548 222.137
 27.786 c 224.605 26.028 226.012 23.689 226.359 20.767 c 226.773 17.29 225.723
 14.439 223.211 12.22 c 220.703 10.001 217.27 8.892 212.93 8.892 c 209.156
 8.892 206.039 9.759 203.574 11.497 c 201.113 13.239 199.711 15.548 199.367
 18.431 c h
212.797 28.118 m 209.852 28.118 207.504 27.306 205.738 25.685 c 203.973
 24.06 203.25 21.931 203.562 19.298 c 203.66 18.462 l 203.93 16.192 204.883
 14.407 206.52 13.099 c 208.156 11.794 210.285 11.138 212.902 11.138 c 215.941
 11.138 218.309 12.028 219.996 13.806 c 221.688 15.583 222.367 17.896 222.027
 20.739 c 221.758 23.024 220.801 24.829 219.156 26.146 c 217.52 27.462 215.398
 28.118 212.797 28.118 c h
212.797 28.118 m f*
37.469 263.353 m 189.305 263.353 l 189.305 108.032 l 189.305 90.712 175.262
 76.54 158.098 76.54 c 68.676 76.54 l 51.512 76.54 37.469 90.712 37.469 
108.032 c h
144.52 107.583 m 169.266 107.583 l 169.266 95.286 l 144.52 95.286 l h
133.895 205.208 m 147.742 205.208 159.074 194.536 159.074 181.497 c 159.074
 135.97 l 159.074 122.931 147.742 112.263 133.895 112.263 c 120.047 112.263
 108.715 122.931 108.715 135.97 c 108.715 181.497 l 108.715 194.536 120.047
 205.208 133.895 205.208 c h
133.895 205.208 m f*
Q Q
showpage
%%Trailer
end restore
%%EOF
